function data()
return {
	order = 0,
	params = {
		albedo_scale = {
			albedoScale = { 1, 1, 1, },
		},
		fade_out_range = {
			fadeOutEndDist = 20000,
			fadeOutStartDist = 10000,
		},
		map_albedo = {
			fileName = "models/rheingold_ausleger_basic.tga",
			type = "TWOD",
			wrapS = "REPEAT",
			wrapT = "REPEAT",
		},
		map_metal_gloss_ao = {
			fileName = "transparent.tga",
			type = "TWOD",
		},
		polygon_offset = {
			factor = 0,
			forceDepthWrite = false,
			units = 0,
		},
		two_sided = {
			flipNormal = true,
			twoSided = false,
		},
	},
	type = "PHYSICAL",
}
end
